Project 2
…
prof_evals <- prof_evals |>
  mutate(n = `Agree strongly` + Agree + `Agree Somewhat` + Neutral + `Disagree Somewhat` + Disagree + `Disagree Strongly`,
         meanscore_prof = 7 * `Agree strongly` / n + 6 * Agree / n +
           5 * `Agree Somewhat` / n + 4 * Neutral / n +
           3 * `Disagree Somewhat` / n + 2 * `Disagree` / n + 
           1 * `Disagree Strongly` / n)

evals_df <- left_join(prof_evals, univ_evals, by = "Question")
evals_df

# A tibble: 162 × 13
   Term  Course Question   Agree…¹ Agree Agree…² Neutral Disag…³ Disag…⁴ Disag…⁵
   <chr> <chr>  <chr>        <dbl> <dbl>   <dbl>   <dbl>   <dbl>   <dbl>   <dbl>
 1 F19   113-02 1. Course…       9     9       1       5       0       0       0
 2 F19   113-02 2. Effect…      12     8       1       2       1       0       0
 3 F19   113-02 3. Enviro…      11     8       2       3       0       0       0
 4 F19   113-02 5a. Fair …       5    13       3       1       1       0       1
 5 F19   113-02 5b. Timel…       8    12       1       2       1       0       0
 6 F19   113-02 5c. Const…       5     8       4       6       1       0       0
 7 F19   113-02 6a. Recom…      11     6       4       2       1       0       0
 8 F19   113-02 6b. Recom…      11     7       3       1       0       2       0
 9 F19   113-02 6c. Instr…      11     6       4       2       0       0       0
10 F19   213-02 1. Course…       7    13       1       0       0       0       0
# … with 152 more rows, 3 more variables: n <dbl>, meanscore_prof <dbl>,
#   meanscore_univ <dbl>, and abbreviated variable names ¹​`Agree strongly`,
#   ²​`Agree Somewhat`, ³​`Disagree Somewhat`, ⁴​Disagree, ⁵​`Disagree Strongly`
…
instructor_df

# A tibble: 28 × 5
   type       level     count agreeance         percentage
   <chr>      <chr>     <dbl> <fct>                  <dbl>
 1 instructor all         300 agree_strongly          56.3
 2 instructor all         300 agree                   29.3
 3 instructor all         300 agree_somewhat           7.7
 4 instructor all         300 neutral                  3  
 5 instructor all         300 disagree_somewhat        1.3
 6 instructor all         300 disagree                 1.3
 7 instructor all         300 disagree_strongly        1  
 8 instructor 100-level   203 agree_strongly          53.2
 9 instructor 100-level   203 agree                   28.6
10 instructor 100-level   203 agree_somewhat           9.9
# … with 18 more rows
…
