Project 3
…
Statement of Integrity: “All work presented is my own, and I have followed all rules for collaboration. I have not discussed this project with anyone outside of students currently enrolled in this course, and I have listed any such students at the top of my project.”

Signed by: Rodrick Mpofu

Introduction

The data set used in this project comes from Spotify. It contains data on 20000 songs that includes details such as energy, key, loudness, mode, and speechiness. The goal for the project is to predict the playlist_genre, the general genre of the song, from characteristics of the songs with a k-nearest-neighbors model.

library(tidyverse)
library(here)
spotify_df <- read_csv(here("data/spotify_p3.csv"))
spotify_df

# A tibble: 20,000 × 23
   track_id      track…¹ track…² track…³ track…⁴ track…⁵ track…⁶ playl…⁷ playl…⁸
   <chr>         <chr>   <chr>     <dbl> <chr>   <chr>   <chr>   <chr>   <chr>  
 1 6f807x0ima9a… I Don'… Ed She…      66 2oCs0D… I Don'… 2019-0… Pop Re… 37i9dQ…
 2 7fvUMiyapMsR… Beauti… Ed She…      67 2yiy9c… Beauti… 2019-0… Pop Re… 37i9dQ…
 3 6b1RNvAcJjQH… Post M… Sam Fe…      69 6703SR… Post M… 2019-0… Pop Re… 37i9dQ…
 4 3eFJI470ALf1… Cross … Ed She…      58 49bXZt… Cross … 2019-0… Pop Re… 37i9dQ…
 5 6e0CvGZf7Cou… Body O… Loud L…      67 2R66I0… Body O… 2019-0… Pop Re… 37i9dQ…
 6 3eLdNmnRWr9g… SOS - … Avicii       68 7Al4TI… SOS (L… 2019-0… Pop Re… 37i9dQ…
 7 55nMnifaQWKe… Summer… Martin…      63 2vx3Bt… Summer… 2019-0… Pop Re… 37i9dQ…
 8 1EJgymgJHcjS… South … Ed She…      66 1imXAv… South … 2019-1… Pop Re… 37i9dQ…
 9 5WaXMQMlQpq8… All My… AJ Mit…      60 4lXBBb… All My… 2019-0… Pop Re… 37i9dQ…
10 3TjLsDgL0bTb… Say My… David …      65 19z3vp… Say My… 2018-1… Pop Re… 37i9dQ…
# … with 19,990 more rows, 14 more variables: playlist_genre <chr>,
#   playlist_subgenre <chr>, danceability <dbl>, energy <dbl>, key <dbl>,
#   loudness <dbl>, mode <dbl>, speechiness <dbl>, acousticness <dbl>,
#   instrumentalness <dbl>, liveness <dbl>, valence <dbl>, tempo <dbl>,
#   duration_ms <dbl>, and abbreviated variable names ¹​track_name,
#   ²​track_artist, ³​track_popularity, ⁴​track_album_id, ⁵​track_album_name,
#   ⁶​track_album_release_date, ⁷​playlist_name, ⁸​playlist_id
…
