Project 1
…
majors_df <- majors_graduates |> filter(major != "GRADUATES")
graduates_df <- majors_graduates |> filter(major == "GRADUATES") |>
  select(-major)

slumajors_df <- left_join(majors_df, graduates_df, by = "year") |> 
  rename(n_majors = n_majors.x,
         n_graduates = n_majors.y)
slumajors_df

# A tibble: 1,219 × 4
   major         year n_majors n_graduates
   <chr>        <dbl>    <dbl>       <dbl>
 1 Biochemistry  2000        0         425
 2 Biochemistry  2001        0         400
 3 Biochemistry  2002        0         408
 4 Biochemistry  2003        2         452
 5 Biochemistry  2004        1         510
 6 Biochemistry  2005        2         434
 7 Biochemistry  2006        6         510
 8 Biochemistry  2007        5         500
 9 Biochemistry  2008        8         500
10 Biochemistry  2009        3         444
# … with 1,209 more rows
…
